//NEW
{
  "issues": [
    {
      "author": "keith-navys-ai",
      "body": "Greetings - \n\nHow can I upgrade the linux base image to address security vulnerabilities with libxml2 and setuptools? \n\nI don't see a main Dockerfile, just the two for backend/frontend. \n\n<img width=\"1399\" height=\"465\" alt=\"Image\" src=\"https://github.com/user-attachments/assets/3e1bbc06-de83-4a77-90c6-608d3b30cfdc\" />\n\n",
      "createdAt": "2025-08-03T05:48:02Z",
      "labels": [
        "open issue"
      ],
      "number": 2658,
      "title": "Security vulnerability fix - how to update linux base image on container app"
    },
    {
      "author": "pamelafox",
      "body": "This PR is currently failing CI:\nhttps://github.com/Azure-Samples/azure-search-openai-demo/pull/2162\n\nCreate a new PR that accomplishes the same goal as that PR, but passes CI.\n\n## Verification tips\n\nIf you need to create a virtual environment, use the `.venv` folder, like:\n\n```\npython -m venv .venv\n```\n\nWhen you have updated packages, make sure you can install them successfully in the virtual environment.\nTo decide what command to use to install the packages, check the repo's README.md and GitHub Actions workflows in the `.github/workflows` directory.\n\nLeave a comment on the PR indicating what command you used to verify successful installation.",
      "createdAt": "2025-07-28T16:47:18Z",
      "labels": null,
      "number": 2651,
      "title": "Dependabot #2162 to upgrade @fluentui/react failed CI"
    }
  ],
  "pageInfo": {
    "endCursor": "Y3Vyc29yOnYyOpK5MjAyNS0wNy0yOFQxNzo0NzoxOCswMTowMM7C8g2v",
    "hasNextPage": true,
    "hasPreviousPage": false,
    "startCursor": "Y3Vyc29yOnYyOpK5MjAyNS0wOC0wM1QwNjo0ODowMiswMTowMM7D5you"
  },
  "totalCount": 572
}
[
  { //add as much as possible
    "id": 3290111396, // Need to add ID
    "number": 2663,
    "state": "open", // Add state as optional field
    "locked": false,
    "title": "Bump azure-monitor-opentelemetry from 1.6.1 to 1.6.13",
    "body": "Bumps [azure-monitor-opentelemetry](https://github.com/Azure/azure-sdk-for-python) from 1.6.1 to 1.6.13.\n<details>\n<summary>Release notes</summary>\n<p><em>Sourced from <a href=\"https://github.com/Azure/azure-sdk-for-python/releases\">azure-monitor-opentelemetry's releases</a>.</em></p>\n<blockquote>\n<h2>azure-monitor-opentelemetry_1.6.13</h2>\n<h2>1.6.13 (2025-07-30)</h2>\n<h3>Features Added</h3>\n<ul>\n<li>Update to latest OpenTelemetry version after instrumentation breaking change fix. Remove Python 3.8 support.\n(<a href=\"https://redirect.github.com/Azure/azure-sdk-for-python/pull/42247\">#42247</a>)</li>\n</ul>\n<h2>azure-monitor-opentelemetry_1.6.12</h2>\n<h2>1.6.12 (2025-07-21)</h2>\n<h3>Bugs Fixed</h3>\n<ul>\n<li>Fix logging formatter breaking change\n(<a href=\"https://redirect.github.com/Azure/azure-sdk-for-python/pull/42122\">#42122</a>)</li>\n</ul>\n<h2>azure-monitor-opentelemetry_1.6.11</h2>\n<h2>1.6.11 (2025-07-17)</h2>\n<h3>Features Added</h3>\n<ul>\n<li>Add configuring of logging format and logger name via environment variables\n(<a href=\"https://redirect.github.com/Azure/azure-sdk-for-python/pull/42035\">#42035</a>)</li>\n</ul>\n</blockquote>\n</details>\n<details>\n<summary>Commits</summary>\n<ul>\n<li><a href=\"https://github.com/Azure/azure-sdk-for-python/commit/a32a5f6b254a6a7be676f56054eea72ef7326a47\"><code>a32a5f6</code></a> Distro release 1.6.13 (<a href=\"https://redirect.github.com/Azure/azure-sdk-for-python/issues/42257\">#42257</a>)</li>\n<li><a href=\"https://github.com/Azure/azure-sdk-for-python/commit/08a6b28c0789becd4a78fa36e62b6922e6cf01e0\"><code>08a6b28</code></a> Update Distro to latest OTel version (<a href=\"https://redirect.github.com/Azure/azure-sdk-for-python/issues/42247\">#42247</a>)</li>\n<li><a href=\"https://github.com/Azure/azure-sdk-for-python/commit/5eba99f1ced26f223d9c9f09e18bbc864b0c1037\"><code>5eba99f</code></a> Increment package version after release of azure-monitor-querymetrics (<a href=\"https://redirect.github.com/Azure/azure-sdk-for-python/issues/42245\">#42245</a>)</li>\n<li><a href=\"https://github.com/Azure/azure-sdk-for-python/commit/011a618e8b6183645b2dd55bd2980315f20c1de1\"><code>011a618</code></a> [Monitor Metrics] Add samples (<a href=\"https://redirect.github.com/Azure/azure-sdk-for-python/issues/42242\">#42242</a>)</li>\n<li><a href=\"https://github.com/Azure/azure-sdk-for-python/commit/0d79413bb9310fef29ca3cde41a83c4280b2d840\"><code>0d79413</code></a> [AutoRelease] t2-monitor-2025-07-28-70598(can only be merged by SDK owner) (#...</li>\n<li><a href=\"https://github.com/Azure/azure-sdk-for-python/commit/5ce5f9a2c043e7eda4b350d6983b1d372996c84e\"><code>5ce5f9a</code></a> [Monitor] Add TypeSpec-based azure-monitor-querymetrics package (<a href=\"https://redirect.github.com/Azure/azure-sdk-for-python/issues/42174\">#42174</a>)</li>\n<li><a href=\"https://github.com/Azure/azure-sdk-for-python/commit/afb07fc434efba98c4a963b406ffa5e38455de43\"><code>afb07fc</code></a> Update CHANGELOG.md (<a href=\"https://redirect.github.com/Azure/azure-sdk-for-python/issues/42229\">#42229</a>)</li>\n<li><a href=\"https://github.com/Azure/azure-sdk-for-python/commit/815ddd96f72714670fa9a65ea00a47d780d451b8\"><code>815ddd9</code></a> Refactored DJB2 code for Application Insights Sampler (<a href=\"https://redirect.github.com/Azure/azure-sdk-for-python/issues/42210\">#42210</a>)</li>\n<li><a href=\"https://github.com/Azure/azure-sdk-for-python/commit/7a8a3aaf154d0ee9124672fd07250f5c6de652e5\"><code>7a8a3aa</code></a> Added changes for rate limited sampler (azure-exporter changes) (<a href=\"https://redirect.github.com/Azure/azure-sdk-for-python/issues/41954\">#41954</a>)</li>\n<li><a href=\"https://github.com/Azure/azure-sdk-for-python/commit/779b0310fd067c008c1fd4a05382318db9872341\"><code>779b031</code></a> Remove non-existing instrumentor (<a href=\"https://redirect.github.com/Azure/azure-sdk-for-python/issues/42202\">#42202</a>)</li>\n<li>Additional commits viewable in <a href=\"https://github.com/Azure/azure-sdk-for-python/compare/azure-monitor-opentelemetry_1.6.1...azure-monitor-opentelemetry_1.6.13\">compare view</a></li>\n</ul>\n</details>\n<br />\n\n\n[![Dependabot compatibility score](https://dependabot-badges.githubapp.com/badges/compatibility_score?dependency-name=azure-monitor-opentelemetry&package-manager=pip&previous-version=1.6.1&new-version=1.6.13)](https://docs.github.com/en/github/managing-security-vulnerabilities/about-dependabot-security-updates#about-compatibility-scores)\n\nDependabot will resolve any conflicts with this PR as long as you don't alter it yourself. You can also trigger a rebase manually by commenting `@dependabot rebase`.\n\n[//]: # (dependabot-automerge-start)\n[//]: # (dependabot-automerge-end)\n\n---\n\n<details>\n<summary>Dependabot commands and options</summary>\n<br />\n\nYou can trigger Dependabot actions by commenting on this PR:\n- `@dependabot rebase` will rebase this PR\n- `@dependabot recreate` will recreate this PR, overwriting any edits that have been made to it\n- `@dependabot merge` will merge this PR after your CI passes on it\n- `@dependabot squash and merge` will squash and merge this PR after your CI passes on it\n- `@dependabot cancel merge` will cancel a previously requested merge and block automerging\n- `@dependabot reopen` will reopen this PR if it is closed\n- `@dependabot close` will close this PR and stop Dependabot recreating it. You can achieve the same result by closing it manually\n- `@dependabot show <dependency name> ignore conditions` will show all of the ignore conditions of the specified dependency\n- `@dependabot ignore this major version` will close this PR and stop Dependabot creating any more for this major version (unless you reopen the PR or upgrade to it yourself)\n- `@dependabot ignore this minor version` will close this PR and stop Dependabot creating any more for this minor version (unless you reopen the PR or upgrade to it yourself)\n- `@dependabot ignore this dependency` will close this PR and stop Dependabot creating any more for this dependency (unless you reopen the PR or upgrade to it yourself)\n\n\n</details>",
    "author_association": "CONTRIBUTOR",
    "user": { //Try add user object (?)
      "login": "dependabot[bot]",
      "id": 49699333,
      "node_id": "MDM6Qm90NDk2OTkzMzM=",
      "avatar_url": "https://avatars.githubusercontent.com/in/29110?v=4",
      "html_url": "https://github.com/apps/dependabot",
      "gravatar_id": "",
      "type": "Bot",
    },
    "labels": [ //id name description
      {
        "id": 5454473970,
        "url": "https://api.github.com/repos/Azure-Samples/azure-search-openai-demo/labels/dependencies",
        "name": "dependencies",
        "color": "0366d6",
        "description": "Pull requests that update a dependency file",
        "default": false,
        "node_id": "LA_kwDOI7h_Ps8AAAABRRyq8g"
      },
      {
        "id": 5684189776,
        "url": "https://api.github.com/repos/Azure-Samples/azure-search-openai-demo/labels/python",
        "name": "python",
        "color": "2b67c6",
        "description": "Pull requests that update Python code",
        "default": false,
        "node_id": "LA_kwDOI7h_Ps8AAAABUs3aUA"
      }
    ],
    "comments": 0,
    "created_at": "2025-08-04T16:41:44Z", //created - since
    "updated_at": "2025-08-04T16:41:45Z", //updated - since
    "url": "https://api.github.com/repos/Azure-Samples/azure-search-openai-demo/issues/2663",
    "html_url": "https://github.com/Azure-Samples/azure-search-openai-demo/pull/2663",
    "comments_url": "https://api.github.com/repos/Azure-Samples/azure-search-openai-demo/issues/2663/comments",
    "events_url": "https://api.github.com/repos/Azure-Samples/azure-search-openai-demo/issues/2663/events",
    "labels_url": "https://api.github.com/repos/Azure-Samples/azure-search-openai-demo/issues/2663/labels{/name}",
    "repository_url": "https://api.github.com/repos/Azure-Samples/azure-search-openai-demo",
    "pull_request": { // Get PR Info - Number of PRs - Or any info really
      "url": "https://api.github.com/repos/Azure-Samples/azure-search-openai-demo/pulls/2663",
      "html_url": "https://github.com/Azure-Samples/azure-search-openai-demo/pull/2663",
      "diff_url": "https://github.com/Azure-Samples/azure-search-openai-demo/pull/2663.diff",
      "patch_url": "https://github.com/Azure-Samples/azure-search-openai-demo/pull/2663.patch"
    },
    "reactions": { //check if readily available
      "total_count": 0,
      "+1": 0,
      "-1": 0,
      "laugh": 0,
      "confused": 0,
      "heart": 0,
      "hooray": 0,
      "rocket": 0,
      "eyes": 0,
      "url": "https://api.github.com/repos/Azure-Samples/azure-search-openai-demo/issues/2663/reactions"
    },
    "node_id": "PR_kwDOI7h_Ps6iClCX", 
    "draft": false
  },
  {
    "id": 3290097713,
    "number": 2662,
    "state": "open",
    "locked": false,
    "title": "Bump opentelemetry-instrumentation-urllib from 0.52b1 to 0.57b0",
    "body": "Bumps [opentelemetry-instrumentation-urllib](https://github.com/open-telemetry/opentelemetry-python-contrib) from 0.52b1 to 0.57b0.\n<details>\n<summary>Changelog</summary>\n<p><em>Sourced from <a href=\"https://github.com/open-telemetry/opentelemetry-python-contrib/blob/main/CHANGELOG.md\">opentelemetry-instrumentation-urllib's changelog</a>.</em></p>\n<blockquote>\n<h2>Version 1.36.0/0.57b0 (2025-07-29)</h2>\n<h3>Fixed</h3>\n<ul>\n<li><code>opentelemetry-instrumentation</code>: Fix dependency conflict detection when instrumented packages are not installed by moving check back to before instrumentors are loaded. Add &quot;instruments-any&quot; feature for instrumentations that target multiple packages.\n(<a href=\"https://redirect.github.com/open-telemetry/opentelemetry-python-contrib/pull/3610\">#3610</a>)</li>\n<li>infra(ci): Fix git pull failures in core contrib test\n(<a href=\"https://redirect.github.com/open-telemetry/opentelemetry-python-contrib/pull/3357\">#3357</a>)</li>\n</ul>\n<h3>Added</h3>\n<ul>\n<li><code>opentelemetry-instrumentation-psycopg2</code> Utilize instruments-any functionality.\n(<a href=\"https://redirect.github.com/open-telemetry/opentelemetry-python-contrib/pull/3610\">#3610</a>)</li>\n<li><code>opentelemetry-instrumentation-kafka-python</code> Utilize instruments-any functionality.\n(<a href=\"https://redirect.github.com/open-telemetry/opentelemetry-python-contrib/pull/3610\">#3610</a>)</li>\n<li><code>opentelemetry-instrumentation-system-metrics</code>: Add <code>cpython.gc.collections</code> metrics with collection unit is specified in semconv (<a href=\"https://redirect.github.com/open-telemetry/opentelemetry-python-contrib/pull/3617\">3617</a>)</li>\n</ul>\n<h2>Version 1.35.0/0.56b0 (2025-07-11)</h2>\n<h3>Added</h3>\n<ul>\n<li><code>opentelemetry-instrumentation-pika</code> Added instrumentation for All <code>SelectConnection</code> adapters\n(<a href=\"https://redirect.github.com/open-telemetry/opentelemetry-python-contrib/pull/3584\">#3584</a>)</li>\n<li><code>opentelemetry-instrumentation-tornado</code> Add support for <code>WebSocketHandler</code> instrumentation\n(<a href=\"https://redirect.github.com/open-telemetry/opentelemetry-python-contrib/pull/3498\">#3498</a>)</li>\n<li><code>opentelemetry-util-http</code> Added support for redacting specific url query string values and url credentials in instrumentations\n(<a href=\"https://redirect.github.com/open-telemetry/opentelemetry-python-contrib/pull/3508\">#3508</a>)</li>\n<li><code>opentelemetry-instrumentation-pymongo</code> <code>aggregate</code> and <code>getMore</code> capture statements support\n(<a href=\"https://redirect.github.com/open-telemetry/opentelemetry-python-contrib/pull/3601\">#3601</a>)</li>\n</ul>\n<h3>Fixed</h3>\n<ul>\n<li><code>opentelemetry-instrumentation-asgi</code>: fix excluded_urls in instrumentation-asgi\n(<a href=\"https://redirect.github.com/open-telemetry/opentelemetry-python-contrib/pull/3567\">#3567</a>)</li>\n<li><code>opentelemetry-resource-detector-containerid</code>: make it more quiet on platforms without cgroups\n(<a href=\"https://redirect.github.com/open-telemetry/opentelemetry-python-contrib/pull/3579\">#3579</a>)</li>\n</ul>\n<h2>Version 1.34.0/0.55b0 (2025-06-04)</h2>\n<h3>Fixed</h3>\n<ul>\n<li><code>opentelemetry-instrumentation-system-metrics</code>: fix loading on Google Cloud Run\n(<a href=\"https://redirect.github.com/open-telemetry/opentelemetry-python-contrib/pull/3533\">#3533</a>)</li>\n<li><code>opentelemetry-instrumentation-fastapi</code>: fix wrapping of middlewares\n(<a href=\"https://redirect.github.com/open-telemetry/opentelemetry-python-contrib/pull/3012\">#3012</a>)</li>\n<li><code>opentelemetry-instrumentation-starlette</code> Remove max version constraint on starlette\n(<a href=\"https://redirect.github.com/open-telemetry/opentelemetry-python-contrib/pull/3456\">#3456</a>)</li>\n<li><code>opentelemetry-instrumentation-starlette</code> Fix memory leak and double middleware\n(<a href=\"https://redirect.github.com/open-telemetry/opentelemetry-python-contrib/pull/3529\">#3529</a>)</li>\n<li><code>opentelemetry-instrumentation-urllib3</code>: proper bucket boundaries in stable semconv http duration metrics</li>\n</ul>\n<!-- raw HTML omitted -->\n</blockquote>\n<p>... (truncated)</p>\n</details>\n<details>\n<summary>Commits</summary>\n<ul>\n<li>See full diff in <a href=\"https://github.com/open-telemetry/opentelemetry-python-contrib/commits\">compare view</a></li>\n</ul>\n</details>\n<br />\n\n\n[![Dependabot compatibility score](https://dependabot-badges.githubapp.com/badges/compatibility_score?dependency-name=opentelemetry-instrumentation-urllib&package-manager=pip&previous-version=0.52b1&new-version=0.57b0)](https://docs.github.com/en/github/managing-security-vulnerabilities/about-dependabot-security-updates#about-compatibility-scores)\n\nDependabot will resolve any conflicts with this PR as long as you don't alter it yourself. You can also trigger a rebase manually by commenting `@dependabot rebase`.\n\n[//]: # (dependabot-automerge-start)\n[//]: # (dependabot-automerge-end)\n\n---\n\n<details>\n<summary>Dependabot commands and options</summary>\n<br />\n\nYou can trigger Dependabot actions by commenting on this PR:\n- `@dependabot rebase` will rebase this PR\n- `@dependabot recreate` will recreate this PR, overwriting any edits that have been made to it\n- `@dependabot merge` will merge this PR after your CI passes on it\n- `@dependabot squash and merge` will squash and merge this PR after your CI passes on it\n- `@dependabot cancel merge` will cancel a previously requested merge and block automerging\n- `@dependabot reopen` will reopen this PR if it is closed\n- `@dependabot close` will close this PR and stop Dependabot recreating it. You can achieve the same result by closing it manually\n- `@dependabot show <dependency name> ignore conditions` will show all of the ignore conditions of the specified dependency\n- `@dependabot ignore this major version` will close this PR and stop Dependabot creating any more for this major version (unless you reopen the PR or upgrade to it yourself)\n- `@dependabot ignore this minor version` will close this PR and stop Dependabot creating any more for this minor version (unless you reopen the PR or upgrade to it yourself)\n- `@dependabot ignore this dependency` will close this PR and stop Dependabot creating any more for this dependency (unless you reopen the PR or upgrade to it yourself)\n\n\n</details>",
    "author_association": "CONTRIBUTOR",
    "user": {
      "login": "dependabot[bot]",
      "id": 49699333,
      "node_id": "MDM6Qm90NDk2OTkzMzM=",
      "avatar_url": "https://avatars.githubusercontent.com/in/29110?v=4",
      "html_url": "https://github.com/apps/dependabot",
      "gravatar_id": "",
      "type": "Bot",
      "site_admin": false,
      "url": "https://api.github.com/users/dependabot%5Bbot%5D",
      "events_url": "https://api.github.com/users/dependabot%5Bbot%5D/events{/privacy}",
      "following_url": "https://api.github.com/users/dependabot%5Bbot%5D/following{/other_user}",
      "followers_url": "https://api.github.com/users/dependabot%5Bbot%5D/followers",
      "gists_url": "https://api.github.com/users/dependabot%5Bbot%5D/gists{/gist_id}",
      "organizations_url": "https://api.github.com/users/dependabot%5Bbot%5D/orgs",
      "received_events_url": "https://api.github.com/users/dependabot%5Bbot%5D/received_events",
      "repos_url": "https://api.github.com/users/dependabot%5Bbot%5D/repos",
      "starred_url": "https://api.github.com/users/dependabot%5Bbot%5D/starred{/owner}{/repo}",
      "subscriptions_url": "https://api.github.com/users/dependabot%5Bbot%5D/subscriptions"
    },
    "labels": [
      {
        "id": 5454473970,
        "url": "https://api.github.com/repos/Azure-Samples/azure-search-openai-demo/labels/dependencies",
        "name": "dependencies",
        "color": "0366d6",
        "description": "Pull requests that update a dependency file",
        "default": false,
        "node_id": "LA_kwDOI7h_Ps8AAAABRRyq8g"
      },
      {
        "id": 5684189776,
        "url": "https://api.github.com/repos/Azure-Samples/azure-search-openai-demo/labels/python",
        "name": "python",
        "color": "2b67c6",
        "description": "Pull requests that update Python code",
        "default": false,
        "node_id": "LA_kwDOI7h_Ps8AAAABUs3aUA"
      }
    ],
    "comments": 0,
    "created_at": "2025-08-04T16:35:56Z",
    "updated_at": "2025-08-04T16:35:57Z",
    "url": "https://api.github.com/repos/Azure-Samples/azure-search-openai-demo/issues/2662",
    "html_url": "https://github.com/Azure-Samples/azure-search-openai-demo/pull/2662",
    "comments_url": "https://api.github.com/repos/Azure-Samples/azure-search-openai-demo/issues/2662/comments",
    "events_url": "https://api.github.com/repos/Azure-Samples/azure-search-openai-demo/issues/2662/events",
    "labels_url": "https://api.github.com/repos/Azure-Samples/azure-search-openai-demo/issues/2662/labels{/name}",
    "repository_url": "https://api.github.com/repos/Azure-Samples/azure-search-openai-demo",
    "pull_request": {
      "url": "https://api.github.com/repos/Azure-Samples/azure-search-openai-demo/pulls/2662",
      "html_url": "https://github.com/Azure-Samples/azure-search-openai-demo/pull/2662",
      "diff_url": "https://github.com/Azure-Samples/azure-search-openai-demo/pull/2662.diff",
      "patch_url": "https://github.com/Azure-Samples/azure-search-openai-demo/pull/2662.patch"
    },
    "reactions": {
      "total_count": 0,
      "+1": 0,
      "-1": 0,
      "laugh": 0,
      "confused": 0,
      "heart": 0,
      "hooray": 0,
      "rocket": 0,
      "eyes": 0,
      "url": "https://api.github.com/repos/Azure-Samples/azure-search-openai-demo/issues/2662/reactions"
    },
    "node_id": "PR_kwDOI7h_Ps6iCiDq",
    "draft": false
  }
]
// NEW NEW
{
  "issues": [
    {
      "id": 3286706734,
      "number": 2658,
      "state": "OPEN",
      "title": "Security vulnerability fix - how to update linux base image on container app",
      "body": "Greetings - \n\nHow can I upgrade the linux base image to address security vulnerabilities with libxml2 and setuptools? \n\nI don't see a main Dockerfile, just the two for backend/frontend. \n\n<img width=\"1399\" height=\"465\" alt=\"Image\" src=\"https://github.com/user-attachments/assets/3e1bbc06-de83-4a77-90c6-608d3b30cfdc\" />\n\n",
      "user": {
        "login": "keith-navys-ai"
      },
      "labels": [
        {
          "name": "open issue",
          "description": "A validated issue that should be tackled. Comment if you'd like it assigned to you.",
          "node_id": "LA_kwDOI7h_Ps8AAAABjHNrYw"
        }
      ],
      "created_at": "2025-08-03T05:48:02Z",
      "updated_at": "2025-08-04T18:10:33Z"
    },
        {
      "author": "keith-navys-ai",
      "body": "Greetings - \n\nHow can I upgrade the linux base image to address security vulnerabilities with libxml2 and setuptools? \n\nI don't see a main Dockerfile, just the two for backend/frontend. \n\n<img width=\"1399\" height=\"465\" alt=\"Image\" src=\"https://github.com/user-attachments/assets/3e1bbc06-de83-4a77-90c6-608d3b30cfdc\" />\n\n",
      "createdAt": "2025-08-03T05:48:02Z",
      "labels": [
        "open issue"
      ],
      "number": 2658,
      "title": "Security vulnerability fix - how to update linux base image on container app"
    },
    {
      "id": 3270643119,
      "number": 2651,
      "state": "OPEN",
      "title": "Dependabot #2162 to upgrade @fluentui/react failed CI",
      "body": "This PR is currently failing CI:\nhttps://github.com/Azure-Samples/azure-search-openai-demo/pull/2162\n\nCreate a new PR that accomplishes the same goal as that PR, but passes CI.\n\n## Verification tips\n\nIf you need to create a virtual environment, use the `.venv` folder, like:\n\n```\npython -m venv .venv\n```\n\nWhen you have updated packages, make sure you can install them successfully in the virtual environment.\nTo decide what command to use to install the packages, check the repo's README.md and GitHub Actions workflows in the `.github/workflows` directory.\n\nLeave a comment on the PR indicating what command you used to verify successful installation.",
      "user": {
        "login": "pamelafox"
      },
      "created_at": "2025-07-28T16:47:18Z",
      "updated_at": "2025-07-28T16:47:18Z"
    }
  ],
  "pageInfo": {
    "endCursor": "Y3Vyc29yOnYyOpK5MjAyNS0wNy0yOFQxNzo0NzoxOCswMTowMM7C8g2v",
    "hasNextPage": true,
    "hasPreviousPage": false,
    "startCursor": "Y3Vyc29yOnYyOpK5MjAyNS0wOC0wM1QwNjo0ODowMiswMTowMM7D5you"
  },
  "totalCount": 572
}